…
logfoldchange_list = list(rnorm(n),rnorm(n))
nsample_vec <- c(20, 40)
out <- power_fun_ss(
pval_est_list = pval_est_list,
logmean_list = logmean_list,
nsample_vec = nsample_vec,
logfoldchange_list = logfoldchange_list,
alpha_level = 0.1
)
#> Warning: Full SCAM model failed to converge due to numerical instability.
#> The simpler model will be used instead.
#> Original error: Model has more coefficients than data
#> Selected model: simpler model (full model did not converge).
out$combined_data
#> # A tibble: 140 × 5
#>    logmean abs_lfc pval_reject sample_size logsample_size
#>      <dbl>   <dbl>       <dbl>       <dbl>          <dbl>
#>  1  -0.909   1.17            1          20           4.32
#>  2  -0.338   2.15            0          20           4.32
#>  3  -1.41    0.342           1          20           4.32
#>  4   0.218   0.905           0          20           4.32
#>  5   0.670   1.10            0          20           4.32
#>  6  -0.288   1.47            0          20           4.32
#>  7   0.469   0.281           0          20           4.32
#>  8  -0.470   0.846           1          20           4.32
#>  9  -0.239   1.29            0          20           4.32
#> 10  -0.447   0.312           1          20           4.32
#> # ℹ 130 more rows
…
